%YAML 1.1
%TAG !u! tag:unity3d.com,2011:
--- !u!1045 &1
EditorBuildSettings:
  m_ObjectHideFlags: 0
  serializedVersion: 2
  m_Scenes:
  - enabled: 1
    path: Assets/_App/Scenes/000_Pupil 2D Calibration.unity
    guid: 990b857c34f1c014bb805bde3e3e92f1
  - enabled: 1
    path: Assets/_App/Scenes/1 - Geometry/bk-bc/n-bk-bc-1.unity
    guid: d9b17781659511e41b7c126373caad10
  - enabled: 1
    path: Assets/_App/Scenes/1 - Geometry/bk-bc/n-bk-bc-2.unity
    guid: b43d7ccbdfc2dd140a540dbc7f1149b9
  - enabled: 1
    path: Assets/_App/Scenes/1 - Geometry/bk-bc/n-bk-bc-3.unity
    guid: e44cb210c5819ec4580c572e3893333b
  - enabled: 1
    path: Assets/_App/Scenes/1 - Geometry/c-bk/n-c-bk-1.unity
    guid: f0a146bd1c5dcd94ab45e2ddc5c6f7cc
  - enabled: 1
    path: Assets/_App/Scenes/1 - Geometry/c-bk/n-c-bk-2.unity
    guid: 7d5fd508f7d1515479c03c4db0f2510e
  - enabled: 1
    path: Assets/_App/Scenes/1 - Geometry/c-bk/n-c-bk-3.unity
    guid: d794d93c5a4e86f4c873e2cb6e6b943c
  - enabled: 1
    path: Assets/_App/Scenes/1 - Geometry/c-bk/n-c-bk-4.unity
    guid: d764c8005f6efa241b6bbd4f28be8f48
  - enabled: 1
    path: Assets/_App/Scenes/1 - Geometry/c-s/c-s-0.unity
    guid: 9f0cc33ee92718444904762e93a57a2a
  - enabled: 1
    path: Assets/_App/Scenes/1 - Geometry/c-s/c-s-6.unity
    guid: 54fbcc79eabbf834a9e28005d5b2f4de
  - enabled: 1
    path: Assets/_App/Scenes/1 - Geometry/c-s/c-s-12.unity
    guid: f78018bc3ef3b6842a97a8673c7e05fe
  - enabled: 1
    path: Assets/_App/Scenes/1 - Geometry/c-s/c-s-18.unity
    guid: ae5233a80c54292409e3548579d42ec8
  - enabled: 1
    path: Assets/_App/Scenes/1 - Geometry/s-am/n-s-am-0.unity
    guid: 0c6e6c6c76c3bb840843065397d34132
  - enabled: 1
    path: Assets/_App/Scenes/1 - Geometry/s-am/n-s-am-1.unity
    guid: c0769cb3534d6854d9d9e12d051cf2cc
  - enabled: 1
    path: Assets/_App/Scenes/1 - Geometry/s-am/n-s-am-2.unity
    guid: 04cf86f187dcea541a111a255c8c5d33
  - enabled: 1
    path: Assets/_App/Scenes/1 - Geometry/s-am/n-s-am-3.unity
    guid: aad460905569b494fa1c00b87b4b11d1
  - enabled: 1
    path: Assets/_App/Scenes/1 - Geometry/s-am/n-s-am-4.unity
    guid: 1a00a8a86e867b543a131b527ebb3957
  - enabled: 1
    path: Assets/_App/Scenes/2 - Scale/s-36-36-18.unity
    guid: 3b6643b1f09d9bc449ab499d24ca9add
  - enabled: 1
    path: Assets/_App/Scenes/2 - Scale/ss-2.unity
    guid: 3b628a4c71116b8459db2e5d7c2ef771
  - enabled: 1
    path: Assets/_App/Scenes/2 - Scale/ss-18.unity
    guid: 4078a58ae588bed42b91d169ca16eb5e
  - enabled: 1
    path: Assets/_App/Scenes/3 - Proportion/h-2.unity
    guid: 473269298eed4a541ae709faf5a5a88e
  - enabled: 1
    path: Assets/_App/Scenes/3 - Proportion/h-2.6.unity
    guid: c08d7ee1660d64d4e8b3f8447c8b5141
  - enabled: 1
    path: Assets/_App/Scenes/3 - Proportion/h-6.unity
    guid: 177e0649636141a41a0ee14a5fe6633c
  - enabled: 1
    path: Assets/_App/Scenes/3 - Proportion/h-18.unity
    guid: c86afefc99d76434c8304be74c19f2f0
  - enabled: 1
    path: Assets/_App/Scenes/3 - Proportion/w-2.unity
    guid: 9db81298e9f85f6438218b0b6d204f99
  - enabled: 1
    path: Assets/_App/Scenes/3 - Proportion/w-2.6.unity
    guid: 33d4a9c2f18aea246a66fe35ca51bb6a
  - enabled: 1
    path: Assets/_App/Scenes/3 - Proportion/w-6.unity
    guid: d0f1cdd5500d1c14f9e98c21bd6f3a15
  - enabled: 1
    path: Assets/_App/Scenes/3 - Proportion/w-18.unity
    guid: 611a528aa1d173a4792556f35178bd55
  - enabled: 1
    path: Assets/_App/Scenes/998_Begin.unity
    guid: cba0bfa558a9d8d4580fc2e6c5588946
  - enabled: 1
    path: Assets/_App/Scenes/999_End.unity
    guid: 7cba1e03b47553944b74e2d79915800c
  m_configObjects: {}
